574.36 97.6757
571.802 101.852
571.646 103.761
569.842 102.885
567.678 101.158
563.804 98.4726
562.017 96.1991
560.044 95.33
556.344 94.1298
550.155 93.3899
547.972 92.0356
552.801 94.2171
565.146 100.188
574.631 100.554
